=================================================================
==========Log de execucao do servidor de streaming udp===========
========================gms18/smr17==============================
enviando pacote 1 
enviando pacote 2 
enviando pacote 3 
enviando pacote 4 
enviando pacote 5 
